@startuml


interface IDoctor
interface IPatient
interface IUserName
abstract class UserName


IUserName <|-- IDoctor
IUserName <|-- IPatient
IUserName <|-- UserName

Patient <|-- DoctorAndPatient
IDoctor <|-- Doctor
IDoctor <|-- DoctorAndPatient
IPatient <|-- DoctorAndPatient
IPatient <|-- Patient

UserName <|-- Patient
UserName <|-- Doctor
UserName <|-- DoctorAndPatient

interface IUserName {
    long getId();
    String getUserName();
    String getFirstName();
    String getLastName();
    Date getDob();
    UserType getType();
}

interface IDoctor{
    String getDoctorId();
}

interface IPatient {
    String getDoctor();
    String getMedicalRecord();
    Collection<Medication> getMedications();
    boolean isInAlarm();
}
enum UserType {
        DOCTOR, PATIENT, BOTH
}
class UserName {
    String userName
    String firstName
    String lastName
    Date dob
}

class Doctor {
    String doctorId
}

class Patient {
    String doctor
    String medicalRecord
    boolean inAlarm
}

class DoctorAndPatient {
    String doctorId
}

@enduml